lab3
…
Calidad de datos y preprocesamiento

quality_tbl <- tibble(
  variable   = names(listings),
  clase      = map_chr(listings, ~ class(.x)[1]),
  n_missing  = map_int(listings, ~ sum(is.na(.x))),
  pct_missing = map_dbl(listings, ~ mean(is.na(.x))),
  n_unicos   = map_int(listings, ~ n_distinct(.x, na.rm = TRUE))
) %>%
  mutate(pct_unicos = n_unicos / nrow(listings)) %>%
  arrange(desc(pct_missing), desc(pct_unicos))

quality_tbl %>% slice_head(n = 30)

## # A tibble: 30 × 6
##    variable                     clase  n_missing pct_missing n_unicos pct_unicos
##    <chr>                        <chr>      <int>       <dbl>    <int>      <dbl>
##  1 calendar_updated             logic…    171748       1            0  0        
##  2 estimated_revenue_l365d      integ…     95502       0.556     9746  0.0567   
##  3 price                        numer…     95502       0.556     2320  0.0135   
##  4 neighbourhood_group_cleansed factor     50683       0.295       17  0.0000990
##  5 review_scores_value          numer…     40328       0.235      187  0.00109  
##  6 review_scores_location       numer…     40328       0.235      184  0.00107  
##  7 review_scores_checkin        numer…     40324       0.235      152  0.000885 
##  8 review_scores_accuracy       numer…     40312       0.235      171  0.000996 
##  9 review_scores_communication  numer…     40308       0.235      161  0.000937 
## 10 review_scores_cleanliness    numer…     40302       0.235      195  0.00114  
## # ℹ 20 more rows
…
Análisis univariado

Numéricas

num_vars <- listings_clean %>%
  select(where(is.numeric)) %>%
  names()

numeric_summary <- summarise_numeric(listings_clean, num_vars) %>%
  arrange(desc(outliers_iqr))

numeric_summary

## # A tibble: 44 × 13
##    variable         n    mean median      sd   min   p01   p25   p75   p99   max
##    <chr>        <int>   <dbl>  <dbl>   <dbl> <dbl> <dbl> <dbl> <dbl> <dbl> <dbl>
##  1 host_respo… 135723   0.957   1    1.55e-1     0     0  1        1     1     1
##  2 calculated… 170127  38.8     1    1.30e+2     0     0  1       12   612  1189
##  3 host_total… 169256 255.      6    1.05e+3     0     1  2       40  6053 10050
##  4 host_listi… 169256 178.      4    7.74e+2     0     1  1       29  5246  5531
##  5 number_of_… 170127   7.89    0    1.75e+1     0     0  0        7    71  1797
##  6 calculated… 170127  45.0     3    1.34e+2     1     1  1       20   612  1189
##  7 calculated… 170127   5.50    0    3.76e+1     0     0  0        1   132   567
##  8 number_of_… 170127  44.4     9    9.03e+1     0     0  1       47   435  3920
##  9 number_of_… 170127   8.87    1    1.80e+1     0     0  0       11    70  1565
## 10 host_accep… 139073   0.858   0.98 2.44e-1     0     0  0.84     1     1     1
## # ℹ 34 more rows
## # ℹ 2 more variables: skew <dbl>, outliers_iqr <int>
…
cat_price_summary

## # A tibble: 36 × 5
##    variable      grupo                     n mean_price median_price
##    <chr>         <chr>                 <int>      <dbl>        <dbl>
##  1 city          Hawaii                32540       865.          230
##  2 city          San Diego, California 11290       600.          176
##  3 city          Austin, Texas         10455       358.          134
##  4 city          Chicago, Illinois      7809       586.          153
##  5 city          Rhode Island           4946       852.          275
##  6 city          Washington, D.C.       4885       440.          124
##  7 city          Boston, Massachusetts  3501       722.          206
##  8 property_type Entire rental unit    20342       287.          168
##  9 property_type Entire condo          19066       409.          216
## 10 property_type Entire home           16272       453.          281
## # ℹ 26 more rows
…
